# compile verilog/system verilog design source files
verilog xil_defaultlib  \
"../../../../pROJECT3-3.srcs/sources_1/new/TempIndicator.v" \
"../../../../pROJECT3-3.srcs/sim_1/new/testbench.v" \

# compile glbl module
verilog xil_defaultlib "glbl.v"

# Do not sort compile order
nosort
