Copyright 1986-2020 Xilinx, Inc. All Rights Reserved.
---------------------------------------------------------------------------------------------------------------------------------------------------
| Tool Version : Vivado v.2020.1 (win64) Build 2902540 Wed May 27 19:54:49 MDT 2020
| Date         : Thu Sep 10 00:34:54 2020
| Host         : DESKTOP-JAMES running 64-bit major release  (build 9200)
| Command      : report_bus_skew -warn_on_violation -file RBG_PB_bus_skew_routed.rpt -pb RBG_PB_bus_skew_routed.pb -rpx RBG_PB_bus_skew_routed.rpx
| Design       : RBG_PB
| Device       : 7z007s-clg400
| Speed File   : -1  PRODUCTION 1.12 2019-11-22
---------------------------------------------------------------------------------------------------------------------------------------------------

Bus Skew Report

No bus skew constraints

