Copyright 1986-2020 Xilinx, Inc. All Rights Reserved.
------------------------------------------------------------------------------------------------------------------------------------------------------
| Tool Version : Vivado v.2020.1 (win64) Build 2902540 Wed May 27 19:54:49 MDT 2020
| Date         : Fri Oct  2 23:36:55 2020
| Host         : DESKTOP-JAMES running 64-bit major release  (build 9200)
| Command      : report_bus_skew -warn_on_violation -file shifter_bus_skew_routed.rpt -pb shifter_bus_skew_routed.pb -rpx shifter_bus_skew_routed.rpx
| Design       : shifter
| Device       : 7z007s-clg400
| Speed File   : -1  PRODUCTION 1.12 2019-11-22
------------------------------------------------------------------------------------------------------------------------------------------------------

Bus Skew Report

No bus skew constraints

