# compile verilog/system verilog design source files
verilog xil_defaultlib  \
"../../../../Project7-1.srcs/sources_1/new/sr_latch.v" \
"../../../../Project7-1.srcs/sim_1/new/testbench.v" \

# compile glbl module
verilog xil_defaultlib "glbl.v"

# Do not sort compile order
nosort
